stm32f7xx_hal_msp.c:65:6:HAL_MspInit	16	static
stm32f7xx_hal_msp.c:89:6:HAL_ADC_MspInit	56	static
stm32f7xx_hal_msp.c:152:6:HAL_ADC_MspDeInit	16	static
stm32f7xx_hal_msp.c:202:6:HAL_DAC_MspInit	48	static
stm32f7xx_hal_msp.c:257:6:HAL_DAC_MspDeInit	16	static
stm32f7xx_hal_msp.c:290:6:HAL_DMA2D_MspInit	24	static
stm32f7xx_hal_msp.c:312:6:HAL_DMA2D_MspDeInit	16	static
stm32f7xx_hal_msp.c:334:6:HAL_I2C_MspInit	56	static
stm32f7xx_hal_msp.c:394:6:HAL_I2C_MspDeInit	16	static
stm32f7xx_hal_msp.c:445:6:HAL_LTDC_MspInit	64	static
stm32f7xx_hal_msp.c:546:6:HAL_LTDC_MspDeInit	16	static
stm32f7xx_hal_msp.c:615:6:HAL_RTC_MspInit	16	static
stm32f7xx_hal_msp.c:637:6:HAL_RTC_MspDeInit	16	static
stm32f7xx_hal_msp.c:659:6:HAL_TIM_Base_MspInit	40	static
stm32f7xx_hal_msp.c:725:6:HAL_TIM_Base_MspDeInit	16	static
stm32f7xx_hal_msp.c:791:6:HAL_UART_MspInit	64	static
stm32f7xx_hal_msp.c:886:6:HAL_UART_MspDeInit	16	static
stm32f7xx_hal_msp.c:951:13:HAL_FMC_MspInit	32	static
stm32f7xx_hal_msp.c:1057:6:HAL_SDRAM_MspInit	16	static
stm32f7xx_hal_msp.c:1069:13:HAL_FMC_MspDeInit	8	static
stm32f7xx_hal_msp.c:1143:6:HAL_SDRAM_MspDeInit	16	static
